Applied Forecasting Methods
…
Judging from acf and pacf, we could try: - ARMA(2,0) - ARMA(0,2) -
ARMA(0,1) - ARMA(2,2) - ARMA(1,1)

fit <- vol %>%
    model(arima200 = ARIMA(vol ~ pdq(2,0,0)),
        arima002 = ARIMA(vol ~ pdq(0,0,2)),
        arima202 = ARIMA(vol ~ pdq(2,0,2)),
        arima101 = ARIMA(vol ~ pdq(1,0,1))
    )

#Generate residuals of all four models
augment(fit) %>% select(-vol, -.fitted, -.resid) %>%
    pivot_wider(names_from = .model, values_from = .innov)

## # A tsibble: 252 x 5 [1]
##     days arima200 arima002  arima202 arima101
##    <dbl>    <dbl>    <dbl>     <dbl>    <dbl>
##  1     1  0.00258  0.00259  0.00254   0.00255
##  2     2 -0.0246  -0.0239  -0.0240   -0.0243 
##  3     3  0.0124   0.0113   0.0122    0.0116 
##  4     4 -0.00493 -0.00894 -0.00796  -0.00770
##  5     5  0.00340  0.00892  0.00815   0.00894
##  6     6  0.0255   0.0235   0.0231    0.0232 
##  7     7 -0.00479 -0.00425 -0.00489  -0.00422
##  8     8 -0.0150  -0.0113  -0.0126   -0.0132 
##  9     9  0.00186 -0.00194 -0.000771 -0.00200
## 10    10  0.00963  0.00669  0.00804   0.00765
## #  242 more rows
…
